0	0	0	0	36.3678702570667	0.107630318920199	1	0.140381	0.333333333333333
0.045	0	0	0	36.3678702570667	0.107630318920199	1	0.140381	0.333333333333333
0.0585	0	0	0	32.680479906223	0.108853391667452	1	0.140381	0.333333333333333
0.072	0	0	0	29.3204624770648	0.106438760447325	1	0.140381	0.333333333333333
0.0855	0	0	0	26.3001364575222	0.102216378930613	1	0.140381	0.333333333333333
0.099	0	0	0	23.6049087250007	0.0972760460800387	1	0.140381	0.333333333333333
0.1125	0	0	0	21.2068602997528	0.0922277161846143	1	0.140381	0.333333333333333
0.126	0	0	0	19.0734568398331	0.087387626183008	1	0.140381	0.333333333333333
0.1395	0	0	0	17.1723177764345	0.0829006537091373	1	0.140381	0.333333333333333
0.153	0	0	0	15.4733230862157	0.0788174094007181	1	0.140381	0.333333333333333
0.1665	0	0	0	13.94933724694	0.0751403764404147	1	0.140381	0.333333333333333
0.18	0	0	0	12.5763564752382	0.0718495875303958	1	0.140381	0.333333333333333
0.1935	0	0	0	11.333407289576	0.0689159324828381	1	0.140381	0.333333333333333
0.207	0	0	0	10.2023036965434	0.0663077350291127	1	0.140381	0.333333333333333
0.2205	0	0	0	9.1673224043129	0.0639939028821776	1	0.140381	0.333333333333333
0.234	0	0	0	8.21484696091721	0.0619453414498078	1	0.140381	0.333333333333333
0.2475	0	0	0	7.33301852837328	0.0601354354625248	1	0.140381	0.333333333333333
0.261	0	0	0	6.51141159599975	0.0585399963667117	1	0.140381	0.333333333333333
0.2745	0	0	0	5.74073729525109	0.057136882025672	1	0.140381	0.333333333333333
0.288	0	0	0	5.0125669413329	0.0559053861318761	1	0.140381	0.333333333333333
0.3015	0	0	0	4.31906185554254	0.0548254103733851	1	0.140381	0.333333333333333
0.315	0	0	0	3.65268878018551	0.0538763467139985	1	0.140381	0.333333333333333
0.3285	0	0	0	3.00588894940708	0.0530354832949017	1	0.140381	0.333333333333333
0.342	0	0	0	2.37064659133461	0.0522755515709837	1	0.140381	0.333333333333333
0.3555	0	0	0	1.73785531964177	0.051560629395802	1	0.140381	0.333333333333333
0.369	0	0	0	1.09627251831256	0.0508386783233696	1	0.140381	0.333333333333333
0.3825	0	0	0	0.430576965990184	0.0500265457846443	1	0.140381	0.333333333333333
0.396	0	0	0	-0.282756949636832	0.0489758598089522	1	0.140381	0.333333333333333
0.4095	0	0	0	-1.08591508219999	0.0473807375698071	1	0.140381	0.333333333333333
0.423	0	0	0	-2.07474427390974	0.0444462241273586	1	0.140381	0.333333333333333
0.4365	0	0	0	-3.96284594522673	0.04	1	0.140381	0.333333333333333
0.45	0	0	0	-3.96284594522673	0.04	1	0.140381	0.333333333333333
